{
  "models": [
    {
      "id": "387ec7f2-eb4f-47c7-aba0-c167da976dbb",
      "name": "Chocolate",
      "publicName": null,
      "employeeName": null,
      "description": null,
      "price": 0,
      "currencyId": "GBP",
      "parentId": "3da7aefa-3c1d-435a-b8f3-0b661da97a99"
    },
    {
      "id": "e5259f79-2e1e-4200-86d0-0a19c44418d2",
      "name": "Honey and Lemon",
      "publicName": null,
      "employeeName": null,
      "description": null,
      "price": 240,
      "currencyId": "GBP",
      "parentId": "ce15e0d7-a506-42a8-bd34-da05e4c0eb18"
    },
    {
      "id": "7de83f8d-b49c-4934-bf77-283976b4c6e6",
      "name": "Ham \u0026 Cheese",
      "publicName": null,
      "employeeName": null,
      "description": null,
      "price": 0,
      "currencyId": "GBP",
      "parentId": "74aabb33-a4fd-4f53-a209-6a7c2665d2a4"
    },
    {
      "id": "8779b09a-6fac-4f0a-a144-d6c6a3727635",
      "name": "Blueberry",
      "publicName": null,
      "employeeName": null,
      "description": null,
      "price": 0,
      "currencyId": "GBP",
      "parentId": "3da7aefa-3c1d-435a-b8f3-0b661da97a99"
    },
    {
      "id": "ba3c6b3e-2851-4cef-bcf9-9b129d418f63",
      "name": "Flapjack",
      "publicName": null,
      "employeeName": null,
      "description": null,
      "price": 150,
      "currencyId": "GBP",
      "parentId": "3da7aefa-3c1d-435a-b8f3-0b661da97a99"
    },
    {
      "id": "6f68a9ad-afc3-4010-ab58-9effd77ab318",
      "name": "Flat White",
      "publicName": null,
      "employeeName": null,
      "description": null,
      "price": 220,
      "currencyId": "GBP",
      "parentId": "ce15e0d7-a506-42a8-bd34-da05e4c0eb18"
    },
    {
      "id": "b8f22e1a-f1d9-4445-9ad3-87f9801187a5",
      "name": "Green Tea",
      "publicName": null,
      "employeeName": null,
      "description": null,
      "price": 240,
      "currencyId": "GBP",
      "parentId": "ce15e0d7-a506-42a8-bd34-da05e4c0eb18"
    },
    {
      "id": "ba14c49b-b54d-405c-a9d3-6fd4ee1b62d5",
      "name": "Camomile and Lemon",
      "publicName": null,
      "employeeName": null,
      "description": null,
      "price": 240,
      "currencyId": "GBP",
      "parentId": "ce15e0d7-a506-42a8-bd34-da05e4c0eb18"
    },
    {
      "id": "7cac3c2e-187e-44cf-b6a4-729fd9282e42",
      "name": "White Chocolate/Raspberry",
      "publicName": null,
      "employeeName": null,
      "description": null,
      "price": 0,
      "currencyId": "GBP",
      "parentId": "3da7aefa-3c1d-435a-b8f3-0b661da97a99"
    },
    {
      "id": "f7b19f9e-8344-4b83-9f7e-1ad76524fd21",
      "name": "Tea",
      "publicName": null,
      "employeeName": null,
      "description": null,
      "price": 240,
      "currencyId": "GBP",
      "parentId": "ce15e0d7-a506-42a8-bd34-da05e4c0eb18"
    },
    {
      "id": "a579271d-c0ab-48a9-9847-ec678221e016",
      "name": "BLT",
      "publicName": null,
      "employeeName": null,
      "description": null,
      "price": 650,
      "currencyId": "GBP",
      "parentId": "74aabb33-a4fd-4f53-a209-6a7c2665d2a4"
    },
    {
      "id": "933e42fb-7167-4f82-aa1e-9f2d9fec777d",
      "name": "Caramel Slice",
      "publicName": null,
      "employeeName": null,
      "description": null,
      "price": 200,
      "currencyId": "GBP",
      "parentId": "3da7aefa-3c1d-435a-b8f3-0b661da97a99"
    },
    {
      "id": "c33fc298-c832-4d33-a604-6e6222db578e",
      "name": "White Chocolate",
      "publicName": null,
      "employeeName": null,
      "description": null,
      "price": 0,
      "currencyId": "GBP",
      "parentId": "3da7aefa-3c1d-435a-b8f3-0b661da97a99"
    },
    {
      "id": "19ec3bb8-e484-40df-a3cc-fcd2be4a8a50",
      "name": "Earl Grey",
      "publicName": null,
      "employeeName": null,
      "description": null,
      "price": 240,
      "currencyId": "GBP",
      "parentId": "ce15e0d7-a506-42a8-bd34-da05e4c0eb18"
    },
    {
      "id": "8064b4de-322b-4927-9f32-716814d2e8c9",
      "name": "Hot Chocolate",
      "publicName": null,
      "employeeName": null,
      "description": null,
      "price": 230,
      "currencyId": "GBP",
      "parentId": "ce15e0d7-a506-42a8-bd34-da05e4c0eb18"
    },
    {
      "id": "bd176e2d-1ee7-4d6c-8e0a-7a65e714dfd0",
      "name": "Mint Tea",
      "publicName": null,
      "employeeName": null,
      "description": null,
      "price": 240,
      "currencyId": "GBP",
      "parentId": "ce15e0d7-a506-42a8-bd34-da05e4c0eb18"
    },
    {
      "id": "618c3260-0a07-4dd8-b706-02448c5bcf98",
      "name": "Mushroom \u0026 Cheese",
      "publicName": null,
      "employeeName": null,
      "description": null,
      "price": 0,
      "currencyId": "GBP",
      "parentId": "74aabb33-a4fd-4f53-a209-6a7c2665d2a4"
    },
    {
      "id": "7dbb99c5-528f-46d2-bf39-ea819d1a6d6e",
      "name": "Brownie",
      "publicName": null,
      "employeeName": null,
      "description": null,
      "price": 0,
      "currencyId": "GBP",
      "parentId": "3da7aefa-3c1d-435a-b8f3-0b661da97a99"
    },
    {
      "id": "b883a2dc-c46d-4738-ada3-22ff5d051093",
      "name": "Toastie",
      "publicName": null,
      "employeeName": null,
      "description": null,
      "price": 240,
      "currencyId": "GBP",
      "parentId": "74aabb33-a4fd-4f53-a209-6a7c2665d2a4"
    },
    {
      "id": "ac9732f9-40e1-4d14-9d58-fde8d6389887",
      "name": "Milk Chocolate",
      "publicName": null,
      "employeeName": null,
      "description": null,
      "price": 0,
      "currencyId": "GBP",
      "parentId": "3da7aefa-3c1d-435a-b8f3-0b661da97a99"
    },
    {
      "id": "de776598-423d-4510-8067-58c57c928bf8",
      "name": "Shortbread",
      "publicName": null,
      "employeeName": null,
      "description": null,
      "price": 160,
      "currencyId": "GBP",
      "parentId": "3da7aefa-3c1d-435a-b8f3-0b661da97a99"
    },
    {
      "id": "2e85d029-43b4-4efd-9d05-012d4dc9017e",
      "name": "Latte",
      "publicName": null,
      "employeeName": null,
      "description": null,
      "price": 250,
      "currencyId": "GBP",
      "sku": "",
      "parentId": "ce15e0d7-a506-42a8-bd34-da05e4c0eb18"
    },
    {
      "id": "a6228a55-41fd-4665-b2ba-1bd94556dd21",
      "name": "Lady Grey",
      "publicName": null,
      "employeeName": null,
      "description": null,
      "price": 240,
      "currencyId": "GBP",
      "parentId": "ce15e0d7-a506-42a8-bd34-da05e4c0eb18"
    },
    {
      "id": "0228e697-cac4-449c-bce9-6037dc9a8a6e",
      "name": "Cookie",
      "publicName": null,
      "employeeName": null,
      "description": null,
      "price": 230,
      "currencyId": "GBP",
      "parentId": "3da7aefa-3c1d-435a-b8f3-0b661da97a99"
    },
    {
      "id": "bee7fd57-9cc1-42fa-b013-e147288bbdde",
      "name": "Cappuccino",
      "publicName": null,
      "employeeName": null,
      "description": null,
      "price": 250,
      "currencyId": "GBP",
      "sku": "",
      "parentId": "ce15e0d7-a506-42a8-bd34-da05e4c0eb18"
    },
    {
      "id": "6fae23e7-c1d1-4216-aa9f-4cc4be8d10d8",
      "name": "Club Sandwich",
      "publicName": null,
      "employeeName": null,
      "description": null,
      "price": 680,
      "currencyId": "GBP",
      "parentId": "74aabb33-a4fd-4f53-a209-6a7c2665d2a4"
    },
    {
      "id": "80dc1832-185b-456c-9bfd-9a227ce525bb",
      "name": "Muffin",
      "publicName": null,
      "employeeName": null,
      "description": null,
      "price": 240,
      "currencyId": "GBP",
      "parentId": "3da7aefa-3c1d-435a-b8f3-0b661da97a99"
    },
    {
      "id": "b786c912-614e-41f2-90a2-049bedf3f7c6",
      "name": "Salted Caramel",
      "publicName": null,
      "employeeName": null,
      "description": null,
      "price": 0,
      "currencyId": "GBP",
      "parentId": "3da7aefa-3c1d-435a-b8f3-0b661da97a99"
    },
    {
      "id": "106fe44b-dd9e-4b93-9abf-c20a7c297c17",
      "name": "Con Panna",
      "publicName": null,
      "employeeName": null,
      "description": null,
      "price": 160,
      "currencyId": "GBP",
      "parentId": "ce15e0d7-a506-42a8-bd34-da05e4c0eb18"
    },
    {
      "id": "65c34bcb-1f04-4a71-8acf-1ebea363cb82",
      "name": "Mocha",
      "publicName": null,
      "employeeName": null,
      "description": null,
      "price": 220,
      "currencyId": "GBP",
      "parentId": "ce15e0d7-a506-42a8-bd34-da05e4c0eb18"
    },
    {
      "id": "abd61cfa-70d1-468c-93eb-3ae25189f6b6",
      "name": "Espresso",
      "publicName": null,
      "employeeName": null,
      "description": null,
      "price": 150,
      "currencyId": "GBP",
      "sku": "",
      "parentId": "ce15e0d7-a506-42a8-bd34-da05e4c0eb18"
    },
    {
      "id": "4f02743d-db94-4817-9b6e-1b7002a6c797",
      "name": "Voucher £25",
      "publicName": null,
      "employeeName": null,
      "description": null,
      "price": 2500,
      "currencyId": "GBP",
      "parentId": "5d2e5c2b-3a07-4a5b-9795-ec99b02e12c8"
    },
    {
      "id": "3a74755e-1247-4b9a-a4a9-623749b5f9c5",
      "name": "Sundrie Tomato",
      "publicName": null,
      "employeeName": null,
      "description": null,
      "price": 0,
      "currencyId": "GBP",
      "parentId": "1880c5f3-7deb-4fa1-985a-bf59ae772572"
    },
    {
      "id": "618f7d6c-cafe-4b52-8d41-2ae904cd1387",
      "name": "Large Mug",
      "publicName": null,
      "employeeName": null,
      "description": null,
      "price": 800,
      "currencyId": "GBP",
      "parentId": "5d2e5c2b-3a07-4a5b-9795-ec99b02e12c8"
    },
    {
      "id": "5d5c8f1d-db94-4a2a-843f-15fbbeae2762",
      "name": "Tomato",
      "publicName": null,
      "employeeName": null,
      "description": null,
      "price": 0,
      "currencyId": "GBP",
      "parentId": "1880c5f3-7deb-4fa1-985a-bf59ae772572"
    },
    {
      "id": "d9b7f05c-db37-4964-b807-2e2f247cc124",
      "name": "Chicken Tika",
      "publicName": null,
      "employeeName": null,
      "description": null,
      "price": 240,
      "currencyId": "GBP",
      "parentId": "74aabb33-a4fd-4f53-a209-6a7c2665d2a4"
    },
    {
      "id": "96101ea7-8d11-4106-ba86-e1d7c47536be",
      "name": "Travel Mug Steel",
      "publicName": null,
      "employeeName": null,
      "description": null,
      "price": 750,
      "currencyId": "GBP",
      "parentId": "5d2e5c2b-3a07-4a5b-9795-ec99b02e12c8"
    },
    {
      "id": "b025ef61-d35e-40f6-87a2-a1310fd2c404",
      "name": "Tomato Pasta Salad",
      "publicName": null,
      "employeeName": null,
      "description": null,
      "price": 400,
      "currencyId": "GBP",
      "parentId": "1880c5f3-7deb-4fa1-985a-bf59ae772572"
    },
    {
      "id": "25486594-3d9f-4faf-b22b-3695d2b3fffd",
      "name": "Banana \u0026 Orange",
      "publicName": null,
      "employeeName": null,
      "description": null,
      "price": 0,
      "currencyId": "GBP",
      "parentId": "376fdd7c-4453-4e47-891d-7c2ebceac9c1"
    },
    {
      "id": "c0daa973-572c-4199-8b0d-0296d5092c1b",
      "name": "Greens",
      "publicName": null,
      "employeeName": null,
      "description": null,
      "price": 0,
      "currencyId": "GBP",
      "parentId": "376fdd7c-4453-4e47-891d-7c2ebceac9c1"
    },
    {
      "id": "13c6681c-b41b-4621-9c6a-35977e3f4528",
      "name": "Cold Pasta",
      "publicName": null,
      "employeeName": null,
      "description": null,
      "price": 0,
      "currencyId": "GBP",
      "parentId": "1880c5f3-7deb-4fa1-985a-bf59ae772572"
    },
    {
      "id": "2d8d00c5-7978-48be-9822-d72cd2d0e303",
      "name": "Pesto",
      "publicName": null,
      "employeeName": null,
      "description": null,
      "price": 0,
      "currencyId": "GBP",
      "parentId": "1880c5f3-7deb-4fa1-985a-bf59ae772572"
    },
    {
      "id": "4ed80893-a50e-42ed-94d5-35b811665b2f",
      "name": "Tuna \u0026 Lettuce ",
      "publicName": null,
      "employeeName": null,
      "description": null,
      "price": 240,
      "currencyId": "GBP",
      "parentId": "74aabb33-a4fd-4f53-a209-6a7c2665d2a4"
    },
    {
      "id": "4f3172ba-9291-4dbb-afbd-e46a528cca4a",
      "name": "Cup Set ",
      "publicName": null,
      "employeeName": null,
      "description": null,
      "price": 2500,
      "currencyId": "GBP",
      "parentId": "5d2e5c2b-3a07-4a5b-9795-ec99b02e12c8"
    },
    {
      "id": "3f494c9d-d11a-4b99-aa55-d9d28744c350",
      "name": "Yellow/Red/Green Pepper",
      "publicName": null,
      "employeeName": null,
      "description": null,
      "price": 0,
      "currencyId": "GBP",
      "parentId": "1880c5f3-7deb-4fa1-985a-bf59ae772572"
    },
    {
      "id": "741db13e-4b93-459a-a8a5-9e38648d01ed",
      "name": "Voucher £10",
      "publicName": null,
      "employeeName": null,
      "description": null,
      "price": 1000,
      "currencyId": "GBP",
      "parentId": "5d2e5c2b-3a07-4a5b-9795-ec99b02e12c8"
    },
    {
      "id": "6567a7c4-5bfb-46d9-a9d6-b71ba76fc329",
      "name": "Beetroot ",
      "publicName": null,
      "employeeName": null,
      "description": null,
      "price": 0,
      "currencyId": "GBP",
      "parentId": "1880c5f3-7deb-4fa1-985a-bf59ae772572"
    },
    {
      "id": "c0162f90-8789-4177-ae1d-1dd3618893d1",
      "name": "Salad Mix Box 5",
      "publicName": null,
      "employeeName": null,
      "description": null,
      "price": 600,
      "currencyId": "GBP",
      "parentId": "1880c5f3-7deb-4fa1-985a-bf59ae772572"
    },
    {
      "id": "51d2e7f0-cf44-4f0d-a9c2-649812c48e52",
      "name": "Orange Juice",
      "publicName": null,
      "employeeName": null,
      "description": null,
      "price": 100,
      "currencyId": "GBP",
      "parentId": "376fdd7c-4453-4e47-891d-7c2ebceac9c1"
    },
    {
      "id": "288c34e2-03d7-4276-8182-a4b68b9457af",
      "name": "Voucher £20",
      "publicName": null,
      "employeeName": null,
      "description": null,
      "price": 2000,
      "currencyId": "GBP",
      "parentId": "5d2e5c2b-3a07-4a5b-9795-ec99b02e12c8"
    }
  ],
  "paging": {
    "total": 102,
    "page": 1,
    "pages": 3
  }
}
